<?xml version="1.0" encoding="UTF-8"?>
<svg width="53px" height="51px" viewBox="0 0 53 51" version="1.1" xmlns="http://www.w3.org/2000/svg" xmlns:xlink="http://www.w3.org/1999/xlink">
    <title>DE4BCF53-4F43-49D2-A6A7-07D1517E7768</title>
    <g id="📱-Prototype" stroke="none" stroke-width="1" fill="none" fill-rule="evenodd">
        <g id="Create-Quiz-Step2" transform="translate(-51.000000, -1587.000000)">
            <g id="Group-3-Copy" transform="translate(32.000000, 1572.000000)">
                <g id="Group-6" transform="translate(19.000000, 15.000000)">
                    <path d="M8.01049625,50.3514287 C6.29464832,50.417007 4.86257256,48.8253278 4.75407144,46.7221378 L2.87924046,10.4112189 C2.80147531,8.90509698 3.93056634,7.60796721 5.43302844,7.47735945 L48.7273904,3.71381726 C50.2679778,3.5798953 51.6254359,4.72022295 51.7593578,6.26081034 C51.7651246,6.32714905 51.768523,6.39367237 51.7695467,6.46025339 L52.3604746,44.8953134 L52.3604746,44.8953134 C52.1316486,47.0818816 50.5194331,48.8450013 48.7027348,48.9152638 L8.01049625,50.3514287 Z" id="Fill-196" fill="#2AB7CA"></path>
                    <path d="M32,15 L32,24 L41,24 L41,31 L32,31 L32,40 L25,40 L25,30.999 L16,31 L16,24 L25,23.999 L25,15 L32,15 Z" id="Combined-Shape" fill="#FFFFFF"></path>
                    <line x1="4.09054532" y1="38.1149528" x2="4.09054532" y2="38.1149528" id="Fill-198" fill="#FAC732"></line>
                    <polyline id="Fill-199" fill="#000000" points="3.75113154 33.2337932 3.63915281 31.632706 3.75113154 33.2337932"></polyline>
                    <polyline id="Fill-204" fill="#F5B6B5" points="3.13629183 24.4006887 3.04656974 23.1146721 3.04726526 23.1146721 3.13629183 24.4006887"></polyline>
                    <path d="M0.81395042,22.2751795 C0.665804652,22.0400937 0.569822887,21.7681453 0.543393125,21.4732448 L0.00784269596,15.5265485 C-0.0923121895,14.4151075 0.779174418,13.4184273 1.9135676,13.3544394 C0.779174418,13.4184273 -0.0916166695,14.4151075 0.00784269596,15.5265485 L0.543393125,21.4732448 C0.569822887,21.7681453 0.665804652,22.0400937 0.81395042,22.2751795" id="Fill-209" fill="#FAD7D7"></path>
                    <path d="M29.3761763,6.12172657 C29.5625757,5.76214271 29.7385422,5.42064237 29.8929477,5.14521644 C31.118454,2.95571936 32.9817522,1.26073702 35.0342318,0.0700067185 L34.9827633,0.113824481 C33.6223261,0.910194924 32.3495245,1.9228721 31.290943,3.16089777 L31.2902474,3.16089777 L31.2895519,3.16298433 C30.7978193,3.73748388 30.3526864,4.35788775 29.9673683,5.02697803 L29.8929477,5.14521644 L29.8894701,5.15147612 C29.7781869,5.35039485 29.6550798,5.5847851 29.5257131,5.83378127 L29.5027609,5.87829456 C29.4610297,5.95827936 29.418603,6.0396552 29.3761763,6.12172657" id="Fill-212" fill="#FEEEA8"></path>
                    <path d="M22.9996486,11.5370456 L22.9996486,11.5370456 C23.3258475,9.51377779 24.9617106,7.80836266 27.0100171,7.3548836 C24.9617106,7.80836266 23.3258475,9.51377779 22.9996486,11.5370456" id="Fill-216" fill="#FDE6AB"></path>
                    <path d="M22.9481801,12.0072171 C22.9572219,11.8486386 22.9746099,11.6921466 22.9996486,11.5370456 C22.9746099,11.6921466 22.9572219,11.8486386 22.9481801,12.0072171" id="Fill-217" fill="#FAB228"></path>
                    <path d="M22.9412249,12.1671867 C22.9426159,12.1136317 22.9447025,12.0600767 22.9481801,12.0072171 C22.9447025,12.0600767 22.9426159,12.1136317 22.9412249,12.1671867" id="Fill-218" fill="#FDDC47"></path>
                    <path d="M27.0100171,7.46058584 L27.0100171,7.46058584 C27.3493005,7.36784984 27.6940563,7.30333783 28.0453788,7.26704983 C27.6940563,7.30333783 27.3493005,7.36784984 27.0100171,7.46058584 M28.2390986,7.24957783 C28.2774048,7.24688983 28.315711,7.24420183 28.3540172,7.24151383 C28.315711,7.24420183 28.2774048,7.24688983 28.2390986,7.24957783" id="Fill-219" fill="#FCCE32"></path>
                </g>
            </g>
        </g>
    </g>
</svg>